<?xml version="1.0" encoding="utf-8"?>
<!-- Generator: Adobe Illustrator 16.0.0, SVG Export Plug-In . SVG Version: 6.00 Build 0)  -->
<!DOCTYPE svg PUBLIC "-//W3C//DTD SVG 1.1//EN" "http://www.w3.org/Graphics/SVG/1.1/DTD/svg11.dtd">
<svg version="1.1" id="Capa_1" xmlns="http://www.w3.org/2000/svg" xmlns:xlink="http://www.w3.org/1999/xlink" x="0px" y="0px"
	 width="28.346px" height="28.346px" viewBox="241.827 241.827 28.346 28.346"
	 enable-background="new 241.827 241.827 28.346 28.346" xml:space="preserve">
<g>
	<g>
		<g>
			<g>
				<path fill="#3DB8DB" d="M261.409,256.688c-0.055,0.082-0.055,0.165-0.083,0.274c-0.027,0.358,0.248,0.688,0.606,0.717
					c0.358,0.027,0.688-0.248,0.715-0.606c0-0.082,0-0.164,0.028-0.303c0-0.138,0-0.22,0-0.302c0-0.798-0.138-1.569-0.385-2.313
					c-0.332-0.964-0.909-1.817-1.598-2.533c-0.854-0.854-1.899-1.459-3.083-1.79c-0.551-0.138-1.156-0.22-1.735-0.22
					c-0.192,0-0.385,0-0.605,0.027c-0.193,0.028-0.385,0.055-0.578,0.083c-0.357,0.055-0.605,0.413-0.523,0.743
					c0.055,0.357,0.413,0.605,0.743,0.523c0.165-0.027,0.303-0.055,0.468-0.055c0.028,0,0.055,0,0.083,0
					c0.138,0,0.275-0.027,0.413-0.027c1.514,0,2.918,0.605,3.91,1.624c0.991,0.991,1.597,2.34,1.624,3.854v0.055
					C261.409,256.551,261.409,256.633,261.409,256.688z"/>
				<path fill="#3DB8DB" d="M265.043,257.295c-0.027,0.356,0.248,0.687,0.606,0.715c0.356,0.027,0.688-0.248,0.715-0.605
					c0.028-0.303,0.028-0.605,0.028-0.909c0-0.605-0.055-1.184-0.139-1.762c-0.357-2.203-1.431-4.185-2.945-5.699
					c-1.734-1.734-4.047-2.863-6.607-3.056c-0.275-0.027-0.578-0.027-0.853-0.027c-0.303,0-0.606,0-0.908,0.027
					c-0.303,0.028-0.605,0.055-0.909,0.11c-0.358,0.055-0.605,0.413-0.523,0.743c0.055,0.358,0.413,0.605,0.744,0.523
					c0.193-0.028,0.358-0.055,0.55-0.083c0.083,0,0.166-0.027,0.248-0.027c0.275-0.028,0.551-0.028,0.798-0.028
					c0.937,0,1.817,0.138,2.67,0.386c1.486,0.44,2.808,1.239,3.882,2.313c0.881,0.881,1.597,1.955,2.064,3.111
					c0.414,1.046,0.661,2.203,0.661,3.414c0,0.082,0,0.192,0,0.275C265.072,256.937,265.043,257.102,265.043,257.295z"/>
				<path fill="#3DB8DB" d="M265.98,246.392c-2.615-2.615-6.194-4.212-10.159-4.212c-0.413,0-0.826,0.028-1.239,0.055
					c-0.413,0.028-0.826,0.083-1.239,0.165c-0.357,0.055-0.605,0.413-0.522,0.743c0.055,0.358,0.413,0.606,0.743,0.523
					c0.193-0.028,0.358-0.056,0.551-0.083c0.192-0.027,0.385-0.055,0.578-0.055c0.385-0.027,0.743-0.055,1.129-0.055
					c3.579,0,6.827,1.459,9.195,3.799c2.34,2.34,3.799,5.589,3.799,9.195c0,0.193,0,0.413,0,0.605c0,0.166-0.027,0.331-0.027,0.523
					c-0.027,0.358,0.247,0.688,0.605,0.716s0.688-0.247,0.716-0.605c0.028-0.412,0.055-0.826,0.055-1.211
					C270.163,252.559,268.568,248.98,265.98,246.392z"/>
				<path fill="#3DB8DB" d="M269.145,263.075l-4.872-2.615c-1.625-0.881-1.68-0.303-3.387,1.515
					c-0.412,0.44-1.183,1.597-2.092,1.376c-1.899-0.468-5.451-3.249-6.607-4.515c-0.551-0.606-2.918-3.497-2.946-4.433
					c-0.055-1.432,3.083-2.147,2.065-4.873l-2.175-4.873c-2.038-4.68-7.736,2.808-7.268,6.305
					c1.211,8.617,16.325,22.546,24.749,17.949C268.485,267.865,271.018,264.204,269.145,263.075z"/>
			</g>
		</g>
	</g>
</g>
</svg>
